DATE,GLOT
2000-01-01,2048.229390681003
2000-01-02,2046.3035635214085
2000-01-03,2044.3002502220693
2000-01-04,2042.2184881447572
2000-01-05,2040.057314651246
2000-01-06,2037.8157671033075
2000-01-07,2035.4928828627158
2000-01-08,2033.087699291242
2000-01-09,2030.5992537506597
2000-01-10,2028.0265836027427
2000-01-11,2025.3687262092615
2000-01-12,2022.6247189319902
2000-01-13,2019.793599132701
2000-01-14,2016.8744041731677
2000-01-15,2013.866171415162
2000-01-16,2010.7679382204572
2000-01-17,2007.5787419508258
2000-01-18,2004.2976199680402
2000-01-19,2000.9236096338739
2000-01-20,1997.4557483100994
2000-01-21,1993.8930733584887
2000-01-22,1990.2346221408156
2000-01-23,1986.4794320188528
2000-01-24,1982.6265403543725
2000-01-25,1978.6749845091472
2000-01-26,1974.6238018449505
2000-01-27,1970.4720297235544
2000-01-28,1966.218705506732
2000-01-29,1961.8628665562564
2000-01-30,1957.4035502338995
2000-01-31,1952.839793901435
2000-02-01,1948.170634920635
2000-02-02,1943.3951106532725
2000-02-03,1938.51225846112
2000-02-04,1933.5211157059503
2000-02-05,1928.4207197495364
2000-02-06,1923.2101079536508
2000-02-07,1917.8883176800668
2000-02-08,1912.454386290556
2000-02-09,1906.9073511468928
2000-02-10,1901.246249610848
2000-02-11,1895.470119044196
2000-02-12,1889.577996808709
2000-02-13,1883.5689202661595
2000-02-14,1877.4419267783203
2000-02-15,1871.1960537069642
2000-02-16,1864.8303384138642
2000-02-17,1858.3438182607927
2000-02-18,1851.7355306095226
2000-02-19,1845.0045128218267
2000-02-20,1838.1498022594778
2000-02-21,1831.1704362842481
2000-02-22,1824.0654522579116
2000-02-23,1816.8338875422398
2000-02-24,1809.4747794990055
2000-02-25,1801.9871654899823
2000-02-26,1794.370082876943
2000-02-27,1786.6225690216588
2000-02-28,1778.7436612859037
2000-03-01,1762.587813620072
2000-03-02,1754.3111472676062
2000-03-03,1745.9124296061534
2000-03-04,1737.4038911218815
2000-03-05,1728.7977623009554
2000-03-06,1720.106273629543
2000-03-07,1711.34165559381
2000-03-08,1702.5161386799227
2000-03-09,1693.6419533740484
2000-03-10,1684.7313301623533
2000-03-11,1675.7964995310037
2000-03-12,1666.849691966166
2000-03-13,1657.9031379540068
2000-03-14,1648.969067980692
2000-03-15,1640.0597125323898
2000-03-16,1631.1873020952648
2000-03-17,1622.3640671554847
2000-03-18,1613.6022381992152
2000-03-19,1604.9140457126234
2000-03-20,1596.3117201818761
2000-03-21,1587.807492093139
2000-03-22,1579.4135919325781
2000-03-23,1571.1422501863613
2000-03-24,1563.0056973406536
2000-03-25,1555.016163881623
2000-03-26,1547.1858802954353
2000-03-27,1539.5270770682569
2000-03-28,1532.0519846862546
2000-03-29,1524.7728336355942
2000-03-30,1517.701854402443
2000-03-31,1510.8512774729668
2000-04-01,1504.2333333333331
2000-04-02,1497.855913088515
2000-04-03,1491.7095503187209
2000-04-04,1485.7804392229668
2000-04-05,1480.0547740002673
2000-04-06,1474.5187488496385
2000-04-07,1469.1585579700952
2000-04-08,1463.960395560654
2000-04-09,1458.9104558203292
2000-04-10,1453.9949329481374
2000-04-11,1449.2000211430934
2000-04-12,1444.5119146042134
2000-04-13,1439.9168075305124
2000-04-14,1435.4008941210063
2000-04-15,1430.95036857471
2000-04-16,1426.5514250906397
2000-04-17,1422.190257867811
2000-04-18,1417.8530611052388
2000-04-19,1413.526029001939
2000-04-20,1409.195355756927
2000-04-21,1404.8472355692184
2000-04-22,1400.4678626378293
2000-04-23,1396.0434311617742
2000-04-24,1391.5601353400693
2000-04-25,1387.0041693717296
2000-04-26,1382.3617274557716
2000-04-27,1377.61900379121
2000-04-28,1372.7621925770604
2000-04-29,1367.7774880123386
2000-04-30,1362.6510842960604
2000-05-01,1357.3691756272403
2000-05-02,1351.9232807962055
2000-05-03,1346.326216958525
2000-05-04,1340.5961258610782
2000-05-05,1334.7511492507456
2000-05-06,1328.8094288744069
2000-05-07,1322.789106478942
2000-05-08,1316.7083238112305
2000-05-09,1310.5852226181532
2000-05-10,1304.4379446465887
2000-05-11,1298.284631643418
2000-05-12,1292.1434253555203
2000-05-13,1286.0324675297759
2000-05-14,1279.9698999130649
2000-05-15,1273.9738642522661
2000-05-16,1268.0625022942606
2000-05-17,1262.2539557859277
2000-05-18,1256.5663664741476
2000-05-19,1251.0178761058005
2000-05-20,1245.6266264277651
2000-05-21,1240.4107591869226
2000-05-22,1235.3884161301523
2000-05-23,1230.5777390043338
2000-05-24,1225.996869556348
2000-05-25,1221.6639495330735
2000-05-26,1217.5971206813913
2000-05-27,1213.8145247481805
2000-05-28,1210.3343034803215
2000-05-29,1207.1745986246942
2000-05-30,1204.3535519281784
2000-05-31,1201.8893051376535
2000-06-01,1199.8000000000002
2000-06-02,1198.0989757868113
2000-06-03,1196.7803618685323
2000-06-04,1195.8334851403233
2000-06-05,1195.2476724973428
2000-06-06,1195.0122508347501
2000-06-07,1195.1165470477042
2000-06-08,1195.549888031365
2000-06-09,1196.3016006808905
2000-06-10,1197.3610118914414
2000-06-11,1198.7174485581752
2000-06-12,1200.3602375762523
2000-06-13,1202.2787058408312
2000-06-14,1204.4621802470717
2000-06-15,1206.899987690132
2000-06-16,1209.5814550651723
2000-06-17,1212.4959092673514
2000-06-18,1215.6326771918282
2000-06-19,1218.9810857337616
2000-06-20,1222.530461788312
2000-06-21,1226.2701322506375
2000-06-22,1230.1894240158979
2000-06-23,1234.2776639792512
2000-06-24,1238.5241790358587
2000-06-25,1242.918296080877
2000-06-26,1247.4493420094677
2000-06-27,1252.1066437167883
2000-06-28,1256.8795280979987
2000-06-29,1261.7573220482575
2000-06-30,1266.7293524627246
2000-07-01,1271.7849462365589
2000-07-02,1276.9155526005688
2000-07-03,1282.12111012816
2000-07-04,1287.4036797283877
2000-07-05,1292.7653223103066
2000-07-06,1298.2080987829718
2000-07-07,1303.7340700554382
2000-07-08,1309.3452970367614
2000-07-09,1315.0438406359963
2000-07-10,1320.8317617621976
2000-07-11,1326.7111213244207
2000-07-12,1332.68398023172
2000-07-13,1338.752399393151
2000-07-14,1344.9184397177683
2000-07-15,1351.1841621146277
2000-07-16,1357.5516274927836
2000-07-17,1364.0228967612913
2000-07-18,1370.6000308292057
2000-07-19,1377.2850906055817
2000-07-20,1384.0801369994751
2000-07-21,1390.9872309199397
2000-07-22,1398.0084332760314
2000-07-23,1405.1458049768048
2000-07-24,1412.4014069313153
2000-07-25,1419.777300048618
2000-07-26,1427.275545237767
2000-07-27,1434.8982034078183
2000-07-28,1442.6473354678265
2000-07-29,1450.5250023268472
2000-07-30,1458.533264893934
2000-07-31,1466.6741840781438
2000-08-01,1474.9498207885304
2000-08-02,1483.3602431786521
2000-08-03,1491.8975483800803
2000-08-04,1500.551840768889
2000-08-05,1509.3132247211515
2000-08-06,1518.1718046129424
2000-08-07,1527.1176848203359
2000-08-08,1536.140969719406
2000-08-09,1545.2317636862265
2000-08-10,1554.380171096872
2000-08-11,1563.5762963274158
2000-08-12,1572.8102437539321
2000-08-13,1582.0721177524958
2000-08-14,1591.3520226991798
2000-08-15,1600.6400629700593
2000-08-16,1609.9263429412072
2000-08-17,1619.2009669886982
2000-08-18,1628.4540394886067
2000-08-19,1637.6756648170058
2000-08-20,1646.855947349971
2000-08-21,1655.9849914635752
2000-08-22,1665.0529015338927
2000-08-23,1674.049781936997
2000-08-24,1682.9657370489633
2000-08-25,1691.7908712458648
2000-08-26,1700.515288903776
2000-08-27,1709.1290943987713
2000-08-28,1717.6223921069238
2000-08-29,1725.9852864043087
2000-08-30,1734.2078816669984
2000-08-31,1742.2802822710687
2000-09-01,1750.1925925925925
2000-09-02,1757.9369930068872
2000-09-03,1765.5139678862402
2000-09-04,1772.9260776021822
2000-09-05,1780.1758825262427
2000-09-06,1787.2659430299523
2000-09-07,1794.1988194848414
2000-09-08,1800.9770722624407
2000-09-09,1807.6032617342787
2000-09-10,1814.0799482718887
2000-09-11,1820.4096922467982
2000-09-12,1826.5950540305387
2000-09-13,1832.6385939946404
2000-09-14,1838.5428725106344
2000-09-15,1844.3104499500494
2000-09-16,1849.9438866844164
2000-09-17,1855.445743085266
2000-09-18,1860.818579524128
2000-09-19,1866.064956372533
2000-09-20,1871.1874340020115
2000-09-21,1876.188572784093
2000-09-22,1881.070933090309
2000-09-23,1885.837075292188
2000-09-24,1890.4895597612626
2000-09-25,1895.0309468690612
2000-09-26,1899.463796987115
2000-09-27,1903.7906704869536
2000-09-28,1908.0141277401078
2000-09-29,1912.1367291181077
2000-09-30,1916.1610349924842
2000-10-01,1920.0896057347672
2000-10-02,1923.9263589476311
2000-10-03,1927.6806411583316
2000-10-04,1931.363156125268
2000-10-05,1934.9846076068395
2000-10-06,1938.5556993614455
2000-10-07,1942.0871351474862
2000-10-08,1945.589618723361
2000-10-09,1949.0738538474689
2000-10-10,1952.5505442782103
2000-10-11,1956.0303937739839
2000-10-12,1959.5241060931896
2000-10-13,1963.0423849942267
2000-10-14,1966.5959342354952
2000-10-15,1970.1954575753944
2000-10-16,1973.8516587723236
2000-10-17,1977.575241584683
2000-10-18,1981.3769097708714
2000-10-19,1985.2673670892889
2000-10-20,1989.257317298335
2000-10-21,1993.357464156409
2000-10-22,1997.5785114219102
2000-10-23,2001.9311628532382
2000-10-24,2006.426122208793
2000-10-25,2011.0740932469744
2000-10-26,2015.8857797261808
2000-10-27,2020.871885404813
2000-10-28,2026.0431140412688
2000-10-29,2031.4101693939501
2000-10-30,2036.9837552212548
2000-10-31,2042.774575281583
2000-11-01,2048.7933333333335
2000-11-02,2055.0452533566995
2000-11-03,2061.5136402190456
2000-11-04,2068.176319009528
2000-11-05,2075.0111148173037
2000-11-06,2081.995852731529
2000-11-07,2089.1083578413627
2000-11-08,2096.32645523596
2000-11-09,2103.6279700044797
2000-11-10,2110.9907272360765
2000-11-11,2118.3925520199095
2000-11-12,2125.811269445134
2000-11-13,2133.2247046009084
2000-11-14,2140.610682576389
2000-11-15,2147.9470284607332
2000-11-16,2155.2115673430967
2000-11-17,2162.382124312638
2000-11-18,2169.4365244585138
2000-11-19,2176.352592869881
2000-11-20,2183.1081546358955
2000-11-21,2189.6810348457157
2000-11-22,2196.0490585884986
2000-11-23,2202.1900509533993
2000-11-24,2208.0818370295783
2000-11-25,2213.702241906188
2000-11-26,2219.02909067239
2000-11-27,2224.0402084173384
2000-11-28,2228.7134202301904
2000-11-29,2233.0265512001038
2000-11-30,2236.957426416235
2000-12-01,2240.4838709677415
2000-12-02,2243.5837099437795
2000-12-03,2246.2347684335077
2000-12-04,2248.4148715260812
2000-12-05,2250.1018443106577
2000-12-06,2251.273511876395
2000-12-07,2251.9076993124486
2000-12-08,2251.982231707976
2000-12-09,2251.4749341521347
2000-12-10,2250.363631734081
2000-12-11,2248.6261495429726
2000-12-12,2246.2403126679665
2000-12-13,2243.183946198219
2000-12-14,2239.434875222887
2000-12-15,2234.9709248311283
2000-12-16,2229.7699201120995
2000-12-17,2223.809686154957
2000-12-18,2217.068048048859
2000-12-19,2209.522830882962
2000-12-20,2201.1518597464224
2000-12-21,2191.9329597283977
2000-12-22,2181.843955918045
2000-12-23,2170.8626734045206
2000-12-24,2158.9669372769827
2000-12-25,2146.1345726245872
2000-12-26,2132.343404536491
2000-12-27,2117.5712581018524
2000-12-28,2101.7959584098267
2000-12-29,2084.9953305495724
2000-12-30,2067.147199610245
2000-12-31,2048.229390681003
