DATE,RR
2000-01-01,19.92821917808219
2000-01-02,19.084585628411027
2000-01-03,18.300314472849845
2000-01-04,17.57377313412049
2000-01-05,16.903329034944882
2000-01-06,16.287349598044855
2000-01-07,15.724202246142314
2000-01-08,15.212254401959122
2000-01-09,14.749873488217153
2000-01-10,14.335426927638299
2000-01-11,13.967282142944418
2000-01-12,13.643806556857395
2000-01-13,13.363367592099106
2000-01-14,13.124332671391429
2000-01-15,12.925069217456235
2000-01-16,12.763944653015411
2000-01-17,12.639326400790821
2000-01-18,12.549581883504343
2000-01-19,12.493078523877864
2000-01-20,12.468183744633249
2000-01-21,12.473264968492375
2000-01-22,12.506689618177125
2000-01-23,12.566825116409376
2000-01-24,12.652038885910997
2000-01-25,12.760698349403867
2000-01-26,12.891170929609865
2000-01-27,13.041824049250863
2000-01-28,13.211025131048743
2000-01-29,13.397141597725376
2000-01-30,13.59854087200264
2000-01-31,13.813590376602416
2000-02-01,14.040657534246575
2000-02-02,14.278109767656993
2000-02-03,14.524314499555548
2000-02-04,14.777639152664115
2000-02-05,15.036451149704575
2000-02-06,15.299117913398796
2000-02-07,15.564006866468667
2000-02-08,15.82948543163605
2000-02-09,16.093921031622834
2000-02-10,16.35568108915088
2000-02-11,16.61313302694208
2000-02-12,16.864644267718305
2000-02-13,17.10858223420143
2000-02-14,17.343314349113328
2000-02-15,17.567208035175884
2000-02-16,17.778630715110967
2000-02-17,17.975949811640458
2000-02-18,18.157532747486226
2000-02-19,18.321746945370162
2000-02-20,18.466959828014122
2000-02-21,18.59153881814
2000-02-22,18.693851338469663
2000-02-23,18.772264811724995
2000-02-24,18.82514666062786
2000-02-25,18.850864307900142
2000-02-26,18.847785176263727
2000-02-27,18.81427668844047
2000-02-28,18.748706267152265
2000-03-01,18.514849315068492
2000-03-02,18.34390402269434
2000-03-03,18.13800484560864
2000-03-04,17.899157564399214
2000-03-05,17.629367959653838
2000-03-06,17.33064181196032
2000-03-07,17.00498490190644
2000-03-08,16.654403010079992
2000-03-09,16.28090191706878
2000-03-10,15.886487403460587
2000-03-11,15.473165249843214
2000-03-12,15.042941236804452
2000-03-13,14.597821144932098
2000-03-14,14.139810754813935
2000-03-15,13.670915847037769
2000-03-16,13.193142202191387
2000-03-17,12.708495600862582
2000-03-18,12.218981823639155
2000-03-19,11.726606651108892
2000-03-20,11.233375863859592
2000-03-21,10.741295242479042
2000-03-22,10.252370567555037
2000-03-23,9.76860761967538
2000-03-24,9.29201217942785
2000-03-25,8.824590027400255
2000-03-26,8.368346944180377
2000-03-27,7.925288710356016
2000-03-28,7.497421106514968
2000-03-29,7.086749913245018
2000-03-30,6.695280911133968
2000-03-31,6.325019880769606
2000-04-01,5.977972602739726
2000-04-02,5.655670441437636
2000-04-03,5.357747096478686
2000-04-04,5.083361851283739
2000-04-05,4.831673989273656
2000-04-06,4.6018427938693
2000-04-07,4.393027548491532
2000-04-08,4.2043875365612156
2000-04-09,4.035082041499212
2000-04-10,3.8842703467263857
2000-04-11,3.751111735663597
2000-04-12,3.634765491731709
2000-04-13,3.534390898351584
2000-04-14,3.4491472389440836
2000-04-15,3.3781937969300713
2000-04-16,3.320689855730408
2000-04-17,3.275794698765958
2000-04-18,3.2426676094575826
2000-04-19,3.2204678712261425
2000-04-20,3.2083547674925037
2000-04-21,3.2054875816775246
2000-04-22,3.2110255972020716
2000-04-23,3.2241280974870015
2000-04-24,3.243954365953183
2000-04-25,3.269663686021473
2000-04-26,3.3004153411127373
2000-04-27,3.335368614647838
2000-04-28,3.373682790047634
2000-04-29,3.4145171507329906
2000-04-30,3.457030980124772
2000-05-01,3.5003835616438352
2000-05-02,3.5438491692620544
2000-05-03,3.587162039155327
2000-05-04,3.630171398050558
2000-05-05,3.6727264726746536
2000-05-06,3.71467648975452
2000-05-07,3.7558706760170644
2000-05-08,3.7961582581891906
2000-05-09,3.8353884629978072
2000-05-10,3.873410517169818
2000-05-11,3.9100736474321303
2000-05-12,3.945227080511648
2000-05-13,3.9787200431352794
2000-05-14,4.01040176202993
2000-05-15,4.040121463922505
2000-05-16,4.067728375539912
2000-05-17,4.093071723609054
2000-05-18,4.116000734856839
2000-05-19,4.136364636010173
2000-05-20,4.154012653795964
2000-05-21,4.168794014941114
2000-05-22,4.180557946172531
2000-05-23,4.18915367421712
2000-05-24,4.194430425801788
2000-05-25,4.19623742765344
2000-05-26,4.194423906498985
2000-05-27,4.188839089065325
2000-05-28,4.179332202079367
2000-05-29,4.165752472268019
2000-05-30,4.147949126358185
2000-05-31,4.125771391076771
2000-06-01,4.099068493150685
2000-06-02,4.067766658788899
2000-06-03,4.032100112128649
2000-06-04,3.9923800767892454
2000-06-05,3.9489177763899934
2000-06-06,3.9020244345501975
2000-06-07,3.852011274889164
2000-06-08,3.7991895210262014
2000-06-09,3.7438703965806135
2000-06-10,3.686365125171708
2000-06-11,3.6269849304187898
2000-06-12,3.5660410359411663
2000-06-13,3.5038446653581414
2000-06-14,3.440707042289024
2000-06-15,3.376939390353119
2000-06-16,3.3128529331697316
2000-06-17,3.2487588943581693
2000-06-18,3.184968497537738
2000-06-19,3.1217929663277424
2000-06-20,3.0595435243474913
2000-06-21,2.998531395216288
2000-06-22,2.9390678025534416
2000-06-23,2.881463969978255
2000-06-24,2.826031121110037
2000-06-25,2.773080479568092
2000-06-26,2.7229232689717278
2000-06-27,2.6758707129402484
2000-06-28,2.632234035092962
2000-06-29,2.5923244590491725
2000-06-30,2.556453208428189
2000-07-01,2.524931506849315
2000-07-02,2.497977340480844
2000-07-03,2.4754357456870135
2000-07-04,2.457058521381047
2000-07-05,2.4425974664761694
2000-07-06,2.4318043798856026
2000-07-07,2.424431060522571
2000-07-08,2.4202293073002994
2000-07-09,2.4189509191320107
2000-07-10,2.420347694930929
2000-07-11,2.4241714336102778
2000-07-12,2.43017393408328
2000-07-13,2.438106995263161
2000-07-14,2.4477224160631432
2000-07-15,2.4587719953964515
2000-07-16,2.471007532176309
2000-07-17,2.48418082531594
2000-07-18,2.498043673728568
2000-07-19,2.5123478763274156
2000-07-20,2.5268452320257095
2000-07-21,2.54128753973667
2000-07-22,2.555426598373524
2000-07-23,2.5690142068494923
2000-07-24,2.581802164077801
2000-07-25,2.5935422689716727
2000-07-26,2.603986320444331
2000-07-27,2.6128861174090003
2000-07-28,2.619993458778905
2000-07-29,2.625060143467268
2000-07-30,2.6278379703873123
2000-07-31,2.628078738452262
2000-08-01,2.625534246575343
2000-08-02,2.6200315569958534
2000-08-03,2.611698785257403
2000-08-04,2.6007393102296787
2000-08-05,2.5873565107823633
2000-08-06,2.5717537657851435
2000-08-07,2.554134454107708
2000-08-08,2.5347019546197385
2000-08-09,2.513659646190922
2000-08-10,2.4912109076909448
2000-08-11,2.467559117989492
2000-08-12,2.4429076559562497
2000-08-13,2.417459900460904
2000-08-14,2.391419230373138
2000-08-15,2.364989024562641
2000-08-16,2.3383726618990965
2000-08-17,2.3117735212521904
2000-08-18,2.285394981491609
2000-08-19,2.2594404214870374
2000-08-20,2.234113220108162
2000-08-21,2.209616756224668
2000-08-22,2.1861544087062406
2000-08-23,2.1639295564225662
2000-08-24,2.1431455782433297
2000-08-25,2.1240058530382178
2000-08-26,2.1067137596769157
2000-08-27,2.0914726770291088
2000-08-28,2.078485983964484
2000-08-29,2.0679570593527252
2000-08-30,2.060089282063519
2000-08-31,2.055086030966551
2000-09-01,2.053150684931507
2000-09-02,2.0544232818586936
2000-09-03,2.0587904957709013
2000-09-04,2.066075659721542
2000-09-05,2.0761021067640266
2000-09-06,2.088693169951767
2000-09-07,2.1036721823381748
2000-09-08,2.1208624769766615
2000-09-09,2.1400873869206385
2000-09-10,2.161170245223518
2000-09-11,2.18393438493871
2000-09-12,2.2082031391196284
2000-09-13,2.2337998408196817
2000-09-14,2.2605478230922853
2000-09-15,2.2882704189908476
2000-09-16,2.3167909615687807
2000-09-17,2.3459327838794977
2000-09-18,2.3755192189764083
2000-09-19,2.405373599912924
2000-09-20,2.4353192597424593
2000-09-21,2.4651795315184217
2000-09-22,2.4947777482942257
2000-09-23,2.5239372431232816
2000-09-24,2.5524813490590015
2000-09-25,2.580233399154796
2000-09-26,2.607016726464078
2000-09-27,2.6326546640402584
2000-09-28,2.656970544936748
2000-09-29,2.6797877022069585
2000-09-30,2.7009294689043033
2000-10-01,2.7202191780821923
2000-10-02,2.7375353651842125
2000-10-03,2.7529773752146545
2000-10-04,2.766699755567983
2000-10-05,2.7788570536386636
2000-10-06,2.7896038168211605
2000-10-07,2.7990945925099404
2000-10-08,2.807483928099469
2000-10-09,2.8149263709842094
2000-10-10,2.8215764685586286
2000-10-11,2.8275887682171916
2000-10-12,2.833117817354364
2000-10-13,2.83831816336461
2000-10-14,2.8433443536423946
2000-10-15,2.8483509355821846
2000-10-16,2.853492456578444
2000-10-17,2.8589234640256396
2000-10-18,2.864798505318235
2000-10-19,2.871272127850697
2000-10-20,2.8784988790174904
2000-10-21,2.8866333062130796
2000-10-22,2.8958299568319297
2000-10-23,2.9062433782685084
2000-10-24,2.9180281179172782
2000-10-25,2.931338723172705
2000-10-26,2.946329741429256
2000-10-27,2.9631557200813945
2000-10-28,2.9819712065235855
2000-10-29,3.002930748150297
2000-10-30,3.026188892355991
2000-10-31,3.0519001865351347
2000-11-01,3.080219178082192
2000-11-02,3.1113213949095253
2000-11-03,3.145466287001069
2000-11-04,3.182934284858658
2000-11-05,3.2240058189841245
2000-11-06,3.2689613198792995
2000-11-07,3.3180812180460166
2000-11-08,3.371645943986108
2000-11-09,3.4299359282014064
2000-11-10,3.4932316011937425
2000-11-11,3.5618133934649507
2000-11-12,3.635961735516863
2000-11-13,3.71595705785131
2000-11-14,3.8020797909701263
2000-11-15,3.8946103653751436
2000-11-16,3.993829211568194
2000-11-17,4.10001676005111
2000-11-18,4.213453441325724
2000-11-19,4.334419685893869
2000-11-20,4.463195924257376
2000-11-21,4.600062586918079
2000-11-22,4.745300104377809
2000-11-23,4.899188907138399
2000-11-24,5.0620094257016826
2000-11-25,5.23404209056949
2000-11-26,5.415567332243655
2000-11-27,5.6068655812260095
2000-11-28,5.808217268018389
2000-11-29,6.019902823122619
2000-11-30,6.242202677040536
2000-12-01,6.475397260273972
2000-12-02,6.71976700332476
2000-12-03,6.975592336694735
2000-12-04,7.243153690885722
2000-12-05,7.522731496399561
2000-12-06,7.81460618373808
2000-12-07,8.119058183403112
2000-12-08,8.43636792589649
2000-12-09,8.76681584172005
2000-12-10,9.110682361375616
2000-12-11,9.468247915365026
2000-12-12,9.839792934190113
2000-12-13,10.225597848352706
2000-12-14,10.62594308835464
2000-12-15,11.041109084697748
2000-12-16,11.471376267883862
2000-12-17,11.917025068414812
2000-12-18,12.37833591679243
2000-12-19,12.855589243518553
2000-12-20,13.34906547909501
2000-12-21,13.859045054023635
2000-12-22,14.38580839880626
2000-12-23,14.92963594394471
2000-12-24,15.490808119940834
2000-12-25,16.06960535729645
2000-12-26,16.666308086513393
2000-12-27,17.281196738093502
2000-12-28,17.914551742538595
2000-12-29,18.566653530350532
2000-12-30,19.23778253203111
2000-12-31,19.92821917808219
